{"projectName":"E2E Hybrid Testing (Web, API, Mobile)","framework":"Katalon Studio","platform":"Multi-Platform","testDate":"2026-06-04","summary":{"total":7,"passed":6,"failed":1},"results":[{"name":"Verifikasi Login Mobile","id":"Mobile_001","steps":[{"data":"standard_user","expected":"field username terisi","action":"Input Username","screenshot":"D:/COE/project_katalon/latihan/katia-api-demo/katia_report/screenshots/Input_Username_1780554458910.jpg","status":"PASSED"},{"data":"secret_sauce","expected":"field password terisi","action":"Input Password","screenshot":"D:/COE/project_katalon/latihan/katia-api-demo/katia_report/screenshots/Input_Password_1780554462568.jpg","status":"PASSED"},{"data":"","expected":"berhasil login","action":"Klik Login","screenshot":"D:/COE/project_katalon/latihan/katia-api-demo/katia_report/screenshots/Klik_Login_1780554466788.jpg","status":"PASSED"}],"status":"PASSED"},{"name":"Verifikasi Login Valid","id":"TC-001","steps":[{"data":"standard_user","expected":"Text username terisi","action":"Input Username","screenshot":"D:/COE/project_katalon/latihan/katia-api-demo/katia_report/screenshots/Input_Username_1780554504219.jpg","status":"PASSED"},{"data":"secret_sauce","expected":"Text password terisi","action":"Input Password","screenshot":"D:/COE/project_katalon/latihan/katia-api-demo/katia_report/screenshots/Input_Password_1780554508622.jpg","status":"PASSED"},{"data":"","expected":"Masuk ke halaman dashboard","action":"Berhasil Login","screenshot":"D:/COE/project_katalon/latihan/katia-api-demo/katia_report/screenshots/Berhasil_Login_1780554510012.jpg","status":"PASSED"}],"status":"PASSED"},{"name":"Get All User","id":"API-001","steps":[{"data":"[[\"REQUEST\\n(URL & BODY)\",\"Method: GET\\nURL: https://reqres.in/api/users\\n\\nPayload:\\nTidak ada payload\"],[\"STATUS CODE\",\"Expected: 200\\nActual: 200\"],[\"RESPONSE BODY\",\"{\\n    \\\"page\\\": 1,\\n    \\\"per_page\\\": 6,\\n    \\\"total\\\": 12,\\n    \\\"total_pages\\\": 2,\\n    \\\"data\\\": [\\n        {\\n            \\\"id\\\": 1,\\n            \\\"email\\\": \\\"george.bluth@reqres.in\\\",\\n            \\\"first_name\\\": \\\"George\\\",\\n            \\\"last_name\\\": \\\"Bluth\\\",\\n            \\\"avatar\\\": \\\"https://reqres.in/img/faces/1-image.jpg\\\"\\n        },\\n        {\\n            \\\"id\\\": 2,\\n            \\\"email\\\": \\\"janet.weaver@reqres.in\\\",\\n            \\\"first_name\\\": \\\"Janet\\\",\\n            \\\"last_name\\\": \\\"Weaver\\\",\\n            \\\"avatar\\\": \\\"https://reqres.in/img/faces/2-image.jpg\\\"\\n        },\\n        {\\n            \\\"id\\\": 3,\\n            \\\"email\\\": \\\"emma.wong@reqres.in\\\",\\n            \\\"first_name\\\": \\\"Emma\\\",\\n            \\\"last_name\\\": \\\"Wong\\\",\\n            \\\"avatar\\\": \\\"https://reqres.in/img/faces/3-image.jpg\\\"\\n        },\\n        {\\n            \\\"id\\\": 4,\\n            \\\"email\\\": \\\"eve.holt@reqres.in\\\",\\n            \\\"first_name\\\": \\\"Eve\\\",\\n            \\\"last_name\\\": \\\"Holt\\\",\\n            \\\"avatar\\\": \\\"https://reqres.in/img/faces/4-image.jpg\\\"\\n        },\\n        {\\n            \\\"id\\\": 5,\\n            \\\"email\\\": \\\"charles.morris@reqres.in\\\",\\n            \\\"first_name\\\": \\\"Charles\\\",\\n            \\\"last_name\\\": \\\"Morris\\\",\\n            \\\"avatar\\\": \\\"https://reqres.in/img/faces/5-image.jpg\\\"\\n        },\\n        {\\n            \\\"id\\\": 6,\\n            \\\"email\\\": \\\"tracey.ramos@reqres.in\\\",\\n            \\\"first_name\\\": \\\"Tracey\\\",\\n            \\\"last_name\\\": \\\"Ramos\\\",\\n            \\\"avatar\\\": \\\"https://reqres.in/img/faces/6-image.jpg\\\"\\n        }\\n    ],\\n    \\\"support\\\": {\\n        \\\"url\\\": \\\"https://benhowdle.im/first-cto-playbook?utm_\\n\\n...[TRUNCATED]\"]]","expected":"","action":"Hit API Endpoint","screenshot":"","status":"PASSED"}],"status":"PASSED"},{"name":"Register User","id":"API-002","steps":[{"data":"[[\"REQUEST\\n(URL & BODY)\",\"Method: POST\\nURL: https://reqres.in/api/register\\n\\nPayload:\\n{\\\"email\\\": \\\"eve.holt@reqres.in\\\", \\\"password\\\": \\\"pistol\\\"}\"],[\"STATUS CODE\",\"Expected: 200\\nActual: 200\"],[\"RESPONSE BODY\",\"{\\n    \\\"id\\\": 4,\\n    \\\"token\\\": \\\"QpwL5tke4Pnpja7X4\\\",\\n    \\\"_meta\\\": {\\n        \\\"powered_by\\\": \\\"ReqRes\\\",\\n        \\\"docs_url\\\": \\\"https://app.reqres.in/documentation\\\",\\n        \\\"upgrade_url\\\": \\\"https://app.reqres.in/upgrade\\\",\\n        \\\"example_url\\\": \\\"https://app.reqres.in/examples/notes-app\\\",\\n        \\\"variant\\\": \\\"v1_b\\\",\\n        \\\"message\\\": \\\"This is a read-only demo endpoint. Sign up to create your own collections with full CRUD and auth.\\\",\\n        \\\"cta\\\": {\\n            \\\"label\\\": \\\"Get started\\\",\\n            \\\"url\\\": \\\"https://app.reqres.in/upgrade\\\"\\n        },\\n        \\\"context\\\": \\\"legacy_success\\\"\\n    }\\n}\"]]","expected":"","action":"Hit API Endpoint","screenshot":"","status":"PASSED"}],"status":"PASSED"},{"name":"Login","id":"API-003","steps":[{"data":"[[\"REQUEST\\n(URL & BODY)\",\"Method: POST\\nURL: https://reqres.in/api/login\\n\\nPayload:\\n{\\\"email\\\": \\\"eve.holt@reqres.in\\\", \\\"password\\\": \\\"pistol\\\"}\"],[\"STATUS CODE\",\"Expected: 200\\nActual: 200\"],[\"RESPONSE BODY\",\"{\\n    \\\"token\\\": \\\"QpwL5tke4Pnpja7X4\\\",\\n    \\\"_meta\\\": {\\n        \\\"powered_by\\\": \\\"ReqRes\\\",\\n        \\\"docs_url\\\": \\\"https://app.reqres.in/documentation\\\",\\n        \\\"upgrade_url\\\": \\\"https://app.reqres.in/upgrade\\\",\\n        \\\"example_url\\\": \\\"https://app.reqres.in/examples/notes-app\\\",\\n        \\\"variant\\\": \\\"v1_b\\\",\\n        \\\"message\\\": \\\"This is a read-only demo endpoint. Sign up to create your own collections with full CRUD and auth.\\\",\\n        \\\"cta\\\": {\\n            \\\"label\\\": \\\"Get started\\\",\\n            \\\"url\\\": \\\"https://app.reqres.in/upgrade\\\"\\n        },\\n        \\\"context\\\": \\\"legacy_success\\\"\\n    }\\n}\"]]","expected":"","action":"Hit API Endpoint","screenshot":"","status":"PASSED"}],"status":"PASSED"},{"name":"Update User","id":"API-004","steps":[{"data":"[[\"REQUEST\\n(URL & BODY)\",\"Method: PUT\\nURL: https://reqres.in/api/users/2\\n\\nPayload:\\n{\\\"name\\\": \\\"morpheus\\\", \\\"job\\\": \\\"zion resident\\\"}\"],[\"STATUS CODE\",\"Expected: 200\\nActual: 200\"],[\"RESPONSE BODY\",\"{\\n    \\\"name\\\": \\\"morpheus\\\",\\n    \\\"job\\\": \\\"zion resident\\\",\\n    \\\"updatedAt\\\": \\\"2026-06-04T06:29:01.400Z\\\",\\n    \\\"_meta\\\": {\\n        \\\"powered_by\\\": \\\"ReqRes\\\",\\n        \\\"docs_url\\\": \\\"https://app.reqres.in/documentation\\\",\\n        \\\"upgrade_url\\\": \\\"https://app.reqres.in/upgrade\\\",\\n        \\\"example_url\\\": \\\"https://app.reqres.in/examples/notes-app\\\",\\n        \\\"variant\\\": \\\"v1_b\\\",\\n        \\\"message\\\": \\\"This is a read-only demo endpoint. Sign up to create your own collections with full CRUD and auth.\\\",\\n        \\\"cta\\\": {\\n            \\\"label\\\": \\\"Get started\\\",\\n            \\\"url\\\": \\\"https://app.reqres.in/upgrade\\\"\\n        },\\n        \\\"context\\\": \\\"legacy_success\\\"\\n    }\\n}\"]]","expected":"","action":"Hit API Endpoint","screenshot":"","status":"PASSED"}],"status":"PASSED"},{"name":"Delete User","id":"API-005","steps":[{"data":"[[\"REQUEST\\n(URL & BODY)\",\"Method: DELETE\\nURL: https://reqres.in/api/users/2\\n\\nPayload:\\n\"],[\"STATUS CODE\",\"Expected: 200\\nActual: 204\"],[\"RESPONSE BODY\",\"\"]]","expected":"","action":"Hit API Endpoint","screenshot":"","status":"FAILED"}],"status":"FAILED"}]}